name="Extra Ascension Slots (6)"
tags={
	"Interface"
	"Gameplay"
}
picture="extascslots6.png"
supported_version="2.7.*"
path="C:/Users/Alexa/Documents/Paradox Interactive/Stellaris/mod/extascslots6"
remote_file_id="909826215"